<robot name="simple_box">
  <link name="my_box">
    <inertial>
      <origin xyz="-0.6 0 0" />
      <mass value="10000.0" />
      <inertia  ixx="10000.0" ixy="0.0"  ixz="0.0"  iyy="1000000.0"  iyz="0.0"  izz="10000.0" />
    </inertial>
    <visual>
      <origin xyz="-0.6 0 1"/>
      <geometry>
        <box size="0.2 1.5 2" />
      </geometry>
    </visual>
    <collision>
      <origin xyz="-0.6 0 1"/>
      <geometry>
        <box size="0.2 1.5 2" />
      </geometry>
    </collision>
  </link>

  <gazebo reference="my_box">
    <material>Gazebo/PaintedWall </material>    
  </gazebo>

  
  
</robot>
